28

12 9
15
9 1
2 8
10 7
1 3
4 1
9 4
4 2
7 5
0 5
9 4
6 7
8 1
8 4
1 6
4 5
55 49

9 4
15
1 1
2 2
5 1
7 3
5 0
2 3
5 2
4 2
2 1
5 2
8 3
6 3
2 1
3 3
5 1
82 46

9 20
9
7 2
6 0
5 10
2 2
0 10
7 10
2 10
5 14
1 17
96 87

18 9
13
17 7
12 4
7 8
9 7
10 0
16 8
1 6
6 3
0 5
5 2
3 7
4 0
6 8
16 14

5 14
19
0 7
4 1
0 10
1 4
2 10
3 10
2 9
1 0
0 10
2 5
1 10
0 0
4 13
0 13
4 9
0 1
0 4
4 6
3 2
96 33

6 20
9
5 14
1 11
3 2
3 5
3 8
2 2
3 10
0 18
3 14
97 73

5 17
9
1 1
3 14
2 9
2 14
4 9
4 7
1 0
3 15
4 2
36 29

6 1
7
3 0
1 0
3 0
1 0
5 0
1 0
3 0
12 3

5 6
16
0 5
4 4
2 1
3 2
3 1
4 5
3 3
2 3
0 5
0 4
4 0
3 1
4 4
1 1
1 1
1 0
5 4

19 10
7
4 7
14 9
8 0
7 6
15 0
6 6
15 3
50 39

15 4
16
11 1
12 1
10 1
12 1
3 1
10 2
4 2
12 3
9 1
1 3
3 0
4 2
10 2
8 0
3 2
5 2
37 35

1 10
6
0 1
0 9
0 0
0 9
0 9
0 2
39 17

17 19
20
7 16
10 12
15 14
16 15
7 16
1 0
11 0
9 15
6 16
6 13
15 16
5 16
1 7
12 5
14 13
11 6
14 9
6 10
11 15
2 12
79 35

5 8
20
3 7
1 1
2 0
4 7
1 1
2 6
0 6
1 7
0 2
3 4
3 7
1 1
3 5
3 3
4 1
4 5
0 3
1 3
4 3
0 3
78 43

18 1
13
1 0
15 0
0 0
11 0
11 0
14 0
0 0
11 0
15 0
11 0
14 0
6 0
2 0
3 3

18 19
11
5 15
8 6
11 15
15 1
3 13
15 7
8 18
4 13
5 0
2 18
8 1
71 5

2 14
14
1 10
1 3
0 9
1 6
1 3
1 12
1 6
1 7
0 0
0 2
0 13
0 12
1 13
0 10
36 32

1 3
8
0 1
0 1
0 2
0 1
0 1
0 1
0 2
0 2
40 20

16 17
12
12 1
12 6
9 3
5 7
6 11
8 9
15 15
0 13
8 3
7 16
2 1
2 7
30 1

1 3
16
0 0
0 1
0 2
0 0
0 0
0 2
0 1
0 0
0 0
0 2
0 1
0 0
0 0
0 1
0 0
0 1
56 15

10 15
11
9 12
1 9
3 5
1 0
9 7
7 0
5 8
2 11
0 5
7 8
3 6
54 29

10 17
19
3 1
8 2
5 13
4 0
9 1
4 14
9 11
0 15
3 15
8 1
8 13
9 6
9 1
6 5
5 6
8 6
2 3
3 4
4 16
88 11

20 5
12
5 2
7 3
1 3
7 2
7 0
17 2
1 4
16 4
6 4
5 2
8 0
8 3
68 33

16 19
19
0 13
3 18
10 14
3 0
15 11
8 15
3 12
13 1
13 9
4 15
13 10
12 13
14 7
3 13
7 3
9 16
10 7
15 5
12 12
83 74

19 15
17
17 13
15 7
14 1
13 3
2 12
18 0
8 7
6 13
15 13
7 4
15 10
16 12
12 11
14 9
17 10
8 12
11 9
1 1

18 14
10
14 1
9 12
12 6
13 2
3 4
11 4
10 0
16 12
12 3
5 0
67 22

1 6
20
0 4
0 5
0 3
0 0
0 2
0 2
0 5
0 5
0 4
0 4
0 1
0 3
0 5
0 1
0 2
0 3
0 2
0 4
0 5
0 0
57 5

17 14
13
12 5
3 5
10 4
3 9
2 9
10 9
2 13
15 9
2 8
14 10
1 4
9 7
13 4
32 12
